----------------------------------------------------------------------------

1. Drag and drop SPACEMARINES folder from the zip into resources folder

e.g C:\OpenXcom 1.0\data\Resources\SPACEMARINES

2. Drag and drop SPACEMARINES.rul into Ruleset folder

e.g C:\OpenXcom 1.0\data\Ruleset\SPACEMARINES.rul

3. Open Openxcom and go to options. Select Mods tab and from there activate

SPACEMARINES

4. Play and have fun!

----------------------------------------------------------------------------

Credits:
Ryskeliini - Sprite artwork/design, Sound "fitting" and coding.

ps: God Emperor from Games workshop owns these rights ,so this is just a fan work. pls dont kill me GW. ;F

thanks to Openxcom community!

----------------------------------------------------------------------------

